<svg xmlns="http://www.w3.org/2000/svg" width="534.368" height="375.426" viewBox="0 0 534.368 375.426">
<style>
.hand{animation:hand_effect 4s cubic-bezier(.165,.84,.44,1) infinite;-webkit-animation:hand_effect 4s cubic-bezier(.165,.84,.44,1) infinite}.hand:nth-of-type(2){animation-delay:.3s}.hand:nth-of-type(3){animation-delay:.5s}.hand:nth-of-type(4){animation-delay:.8s}.hand .heart{animation:heart_effect 4s ease infinite}.hand:nth-of-type(2) .heart{animation-delay:.3s}.hand:nth-of-type(3) .heart{animation-delay:.5s}.hand:nth-of-type(4) .heart{animation-delay:.8s}@keyframes hand_effect{0%{transform:translateY(0);-webkit-transform:translateY(0)}50%{transform:translateY(30px);-webkit-transform:translateY(30px)}100%{transform:translateY(0);-webkit-transform:translateY(0)}}@-webkit-keyframes hand_effect{0%{transform:translateY(0);-webkit-transform:translateY(0)}50%{transform:translateY(30px);-webkit-transform:translateY(30px)}100%{transform:translateY(0);-webkit-transform:translateY(0)}}@keyframes heart_effect{0%{fill:#3dbecb}50%{fill:#ffda8f}100%{fill:#3dbecb}}
}
</style>
<g class="shape">
<g transform="translate(-831.632 -10839)">
<g class="hands">
<g class="hand">
<path d="M202.151,771.5V731.224L192,704.7l3.275-13.1L211.32,688l.982,8.514-9.824,3.6,7.2,14.081,17.9,8.732-6.767,9.278,5.239,47.481Z" transform="translate(691.734 10335.848)" fill="#ebceb1"/><path d="M223,834.667s9.684,4.475,19.086,0l.771,6.987S232.5,846.346,223,841.216Z" transform="translate(670.885 10237.207)" fill="#ffda8f"/><path d="M188.428,921l-8.556,114.281h61.5c-6.079-43.8-18.891-107.077-18.891-107.077Z" transform="translate(699.891 10179.145)" fill="#ffda8f"/>
<path class="heart" d="M137.777,364.689c-13.806,1.485-29.528,12-31.4,24.388-6.3-10.829-28.514-14-41.9-10.3-35.318,9.763-39.833,52.085-19.492,76.088,10.947,12.919,25.126,23.336,40.128,32.257,12.563,7.47,44.136,22.375,44.207,22.29.1.052,23.971-25.424,32.9-36.993,10.667-13.816,20.018-28.719,25.443-44.76C197.753,397.859,174.209,360.771,137.777,364.689Z" transform="translate(798.745 10553.481)" fill="#3dbecb"/>
</g>

<g class="hand">
<path d="M601.346,583.513l.019-24.306,14.081-19.647V526.788L597.108,515l-4.912,7.531,11.625,14.144-15.554,9.433-20.63-18.337L566,541.2l10.151,21.612L573.859,585.4l27.179,5.567Z" transform="translate(440.202 10452.198)" fill="#ebceb1"/>
<path d="M538.84,698.581l39.78,9.961,4.849,92.555,34.28,84.6H533.431l-10.5-84.716Z" transform="translate(469.169 10328.731)" fill="#ffda8f"/>
<path class="heart" d="M525.8,130.761c-15.2-2.617-35.2,3.831-40.962,16.493-3.428-13.484-26.2-23.63-41.62-23.753-40.7-.324-58.407,43.511-43.987,75.344,7.761,17.133,19.735,32.578,33.045,46.674,11.146,11.8,40.334,37.338,40.437,37.269.088.086,33.346-19.861,46.41-29.5,15.6-11.51,30.126-24.584,40.805-40.067C579.766,184.454,565.906,137.667,525.8,130.761Z" transform="translate(555.702 10715.5)" fill="#3dbecb"/>
</g>
<g class="hand">
<path d="M971.467,944.827l42.431-11.77,7.125,110.333H957.088Z" transform="translate(177.177 10171.035)" fill="#ffda8f"/><path d="M1017.136,756.169,991.392,768.7l-7.984-5-1.31-14.08L974.239,747,969,770.577l18.992,18.337-2.947,29.143,29.8-8.186-2.947-25.214Z" transform="translate(169.166 10296.167)" fill="#ebceb1"/>
<path d="M1004.2,925.63l1.57-13.426,36.02-7.2,1.31,9.824Z" transform="translate(145.489 10193.01)" fill="#ffda8f"/>
<path class="heart" d="M920.967,405.541c-13.433-4.075-32.219-.5-38.852,10.284-1.578-12.564-21-24.292-34.915-26.138-36.721-4.874-57.649,32.721-48.209,63.1,5.081,16.347,14.157,31.645,24.591,45.874,8.737,11.916,32.225,38.263,32.325,38.212.07.087,32.352-14.183,45.236-21.418,15.386-8.639,29.976-18.812,41.365-31.593C963.664,460.109,956.415,416.294,920.967,405.541Z" transform="translate(285.024 10536.766)" fill="#3dbecb"/>
</g>
<g class="hand">
<path class="heart" d="M1264.114,233.089c-14.693,1.883-31.234,13.44-32.959,26.691-6.949-11.414-30.714-14.31-44.909-10.074-37.457,11.177-41.358,56.414-19.144,81.575,11.956,13.543,27.3,24.347,43.5,33.537,13.561,7.7,47.558,22.91,47.632,22.818.105.054,25.016-27.636,34.293-40.168,11.078-14.966,20.729-31.064,26.169-48.291C1328.8,267.169,1302.886,228.121,1264.114,233.089Z" transform="translate(45.11 10642.086)" fill="#3dbecb"/>
<path d="M1437.136,668.467s12.443-28.161,12.116-27.834-6.491-25.983-6.491-25.983l-25.927,29.913-9.332-4.093-.164-10.642,10.479-6.549-4.912-8.514-21.939,7.859L1389,645.218l17.191,23.249.491,2.292,31.435,8.841Z" transform="translate(-113.304 10385.179)" fill="#ebceb1"/><path d="M1401.982,775,1401,794.32l58.942,11.133-1.637-15.39Z" transform="translate(-121.375 10276.56)" fill="#ffda8f"/>
<path d="M1408.705,779l-4.526,160.78h64.733L1455.531,792.1Z" transform="translate(-123.513 10274.646)" fill="#ffda8f"/>
</g></g>
</g></g>
</svg>